{
	"name": "libCpackExample",
	"context": "..",
	"dockerFile": "Dockerfile",
	"settings": {
		"terminal.integrated.shell.linux": null
	},
	"extensions": [
		"ms-vscode.cpptools",
		"ms-vscode.cmake-tools"
	],
}